cs_uri_query,total
modname=Eligibility/Student.php,1284
modname=Eligibility/StudentList.php,670
modname=Eligibility/EnterEligibility.php,337
modname=Eligibility/AddActivity.php,279
modname=Eligibility/Activities.php,241
modname=Eligibility/TeacherCompletion.php,194
modname=Eligibility/EntryTimes.php,175
modname=Eligibility/Student.php&modfunc=&search_modfunc=list&next_modname=Eligibility/Student.php&advanced=&last=&first=&stuid=&addr=&grade=&activity_id=,82
modname=Eligibility/Student.php&student_id=1,64
modname=Eligibility/StudentList.php&modfunc=&search_modfunc=list&next_modname=Eligibility/StudentList.php&advanced=&last=&first=&stuid=&addr=&grade=&activity_id=,63
modname=Eligibility/Student.php&modfunc=add&start_date=,49
modname=Eligibility/AddActivity.php&modfunc=&search_modfunc=list&next_modname=Eligibility/AddActivity.php&advanced=&last=&first=&stuid=&addr=&grade=&activity_id=,46
modname=Eligibility/EnterEligibility.php&modfunc=gradebook,41
modname=Eligibility/StudentList.php&search_modfunc=list,37
modname=Eligibility/StudentList.php&search_modfunc=list&next_modname=Eligibility/StudentList.php,29
modname=Eligibility/AddActivity.php&modfunc=save,27
modname=Eligibility/Activities.php&modfunc=update,22
modname=Eligibility/Student.php&student_id=2,18
modname=Eligibility/StudentList.php&next_modname=Eligibility/StudentList.php&advanced=Y,8
modname=Eligibility/Student.php&search_modfunc=list&next_modname=Eligibility/Student.php,7
