cs_uri_query,total
modname=Food_Service/Accounts.php,1215
modname=Food_Service/DailyMenus.php,562
modname=Food_Service/MenuItems.php,447
modname=Food_Service/Statements.php,409
modname=Food_Service/ServeMenus.php,269
modname=Food_Service/Kiosk.php,252
modname=Food_Service/Menus.php,222
modname=Food_Service/MenuItems.php&tab_id=new,215
modname=Food_Service/Transactions.php,207
modname=Food_Service/ActivityReport.php,189
modname=Food_Service/Accounts.php&search_modfunc=list&type=student&include_inactive=Y,177
modname=Food_Service/MenuReports.php,169
modname=Food_Service/Kiosk.php&menu_id=1,155
modname=Food_Service/TransactionsReport.php,154
modname=Food_Service/Reminders.php,146
modname=Food_Service/Kiosk.php&menu_id=2,73
modname=Food_Service/ServeMenus.php&modfunc=add&menu_id=1,70
modname=Food_Service/Accounts.php&modfunc=&search_modfunc=list&next_modname=Food_Service/Accounts.php&advanced=&last=&first=&stuid=&addr=&grade=&fsa_discount=&fsa_status=&fsa_barcode=&fsa_account_id=,68
modname=Food_Service/MenuItems.php&tab_id=1,64
modname=Food_Service/Accounts.php&type=student,63
