cs_uri_query,total
modname=Student_Billing/StudentFees.php,2816
modname=Student_Billing/StudentPayments.php,1173
modname=Student_Billing/StudentBalances.php,449
modname=Student_Billing/MassAssignFees.php,343
modname=Student_Billing/DailyTransactions.php,287
modname=Student_Billing/StudentFees.php&modfunc=&search_modfunc=list&next_modname=Student_Billing/StudentFees.php&advanced=&last=&first=&stuid=&addr=&grade=,243
modname=Student_Billing/Statements.php,156
modname=Student_Billing/MassAssignPayments.php,153
modname=Student_Billing/StudentBalances.php&modfunc=&search_modfunc=list&next_modname=Student_Billing/StudentBalances.php&advanced=&last=&first=&stuid=&addr=&grade=,134
modname=Student_Billing/Statements.php&_ROSARIO_PDF,123
modname=Student_Billing/MassAssignFees.php&modfunc=save,103
modname=Student_Billing/Statements.php&modfunc=&search_modfunc=list&next_modname=Student_Billing/Statements.php&advanced=&_ROSARIO_PDF=true,100
modname=Student_Billing_Premium/StudentFeesMonthly.php,98
modname=Student_Billing/DailyTotals.php,97
modname=Student_Billing/StudentPayments.php&modfunc=&search_modfunc=list&next_modname=Student_Billing/StudentPayments.php&advanced=&last=&first=&stuid=&addr=&grade=,96
modname=Student_Billing/MassAssignFees.php&modfunc=&search_modfunc=list&next_modname=Student_Billing/MassAssignFees.php&advanced=&last=&first=&stuid=&addr=&grade=,91
modname=Student_Billing/StudentFees.php&next_modname=Student_Billing/StudentFees.php&advanced=Y,63
modname=Student_Billing/StudentFees.php&student_id=1,61
modname=Student_Billing/StudentFees.php&modfunc=waive&id=1,57
modname=Student_Billing/StudentFees.php&student_id=2,50
modname=Student_Billing/StudentFees.php&bottom_back=true,48
modname=Student_Billing_Premium/Invoices.php,44
modname=Student_Billing/StudentFees.php&modfunc=remove&id=1,38
modname=Student_Billing/MassAssignPayments.php&modfunc=&search_modfunc=list&next_modname=Student_Billing/MassAssignPayments.php&advanced=&last=&first=&stuid=&addr=&grade=,33
modname=Student_Billing/StudentFees.php&student_id=3,32
modname=Student_Billing/StudentFees.php&id=1&delete_cancel=1,27
modname=Student_Billing_Premium/StudentFeesMonthly.php&modfunc=save,27
modname=Student_Billing/StudentPayments.php&student_id=2,26
modname=Student_Billing/MassAssignPayments.php&modfunc=save,25
modname=Student_Billing_Premium/Invoices.php&modfunc=&search_modfunc=list&next_modname=Student_Billing_Premium/Invoices.php&advanced=&_ROSARIO_PDF=true,25
modname=Student_Billing_Premium/Receipts.php,25
modname=Student_Billing/StudentPayments.php&modfunc=refund&id=1,24
modname=Student_Billing/MassAssignFees.php&next_modname=Student_Billing/MassAssignFees.php&advanced=Y,22
modname=Student_Billing/StudentFees.php&modfunc=&search_modfunc=list&next_modname=Student_Billing/StudentFees.php&advanced=&,21
modname=Student_Billing/StudentBalances.php&bottom_back=true,19
modname=Student_Billing/StudentPayments.php&modfunc=remove&id=1,19
modname=Student_Billing/StudentPayments.php&student_id=1,18
modname=Student_Billing_Premium/Invoices.php&modfunc=choose,18
modname=Student_Billing_Premium/Invoices.php&modfunc=print_receipts&_ROSARIO_PDF=true,17
modname=Student_Billing/Statements.php&next_modname=Student_Billing/Statements.php&advanced=Y,15
modname=Student_Billing/StudentBalances.php&search_modfunc=list&next_modname=Student_Billing/StudentBalances.php&bottom_back=true,15
modname=Student_Billing/StudentFees.php&modfunc=waive&id=2,15
modname=Student_Billing/StudentFees.php&modfunc=remove&id=2,14
modname=Student_Billing/StudentPayments.php&student_id=3,14
modname=Student_Billing_Premium/Receipts.php&modfunc=&search_modfunc=list&next_modname=Student_Billing_Premium/Receipts.php&advanced=&_ROSARIO_PDF=true,14
modname=Student_Billing_Premium/StudentFeesMonthly.php&fee=1&modfunc=add,14
modname=Student_Billing/StudentFees.php&modfunc=&search_modfunc=list&next_modname=Student_Billing/StudentFees.php&advanced=&last=&first=&stuid=&addr=&grade=1,13
modname=Student_Billing_Premium/Receipts.php&modfunc=choose,13
modname=Student_Billing_Premium/Receipts.php&modfunc=print_receipts&_ROSARIO_PDF=true,13
modname=Student_Billing/Statements.php&modfunc=&search_modfunc=list&next_modname=Student_Billing/Statements.php&advanced=Y&_ROSARIO_PDF=true,12
