cs_uri_query,total
modname=Users/User.php,2426
modname=Users/Preferences.php,1006
modname=Users/User.php&staff_id=new,603
modname=Users/Profiles.php,385
modname=Users/TeacherPrograms.php&include=Grades/InputFinalGrades.php,371
modname=Users/User.php&category_id=1&staff_id=&modfunc=update,316
modname=Users/TeacherPrograms.php&include=Attendance/TakeAttendance.php,280
modname=Users/AddStudents.php,271
modname=Users/Exceptions.php,248
modname=Users/Preferences.php&tab=display_options,248
modname=Users/User.php&modfunc=&search_modfunc=list&next_modname=Users/User.php&advanced=&last=&first=&usrid=&username=&profile=&student_grade_level=,222
modname=Users/TeacherPrograms.php&include=Grades/Grades.php,193
modname=Users/Profiles.php&profile_id=1,160
modname=Users/Preferences.php&tab=student_listing,114
modname=Users/User.php&staff_id=2,114
modname=Users/Preferences.php&tab=print_options,102
modname=Users/UserFields.php,98
modname=Users/TeacherPrograms.php&include=Eligibility/EnterEligibility.php,97
modname=Users/Preferences.php&tab=password,95
modname=Users/Preferences.php&tab=student_fields,95
modname=Users/Profiles.php&profile_id=2,95
modname=Users/Profiles.php&profile_id=0,79
modname=Users/User.php&modfunc=&search_modfunc=list&next_modname=Users/User.php&advanced=&last=&first=&usrid=&username=&profile=,79
modname=Users/User.php&staff_id=4,72
modname=Users/User.php&category_id=2&staff_id=2,69
modname=Users/TeacherPrograms.php&include=Grades/AnomalousGrades.php,67
modname=Users/User.php&category_id=1&staff_id=4&modfunc=update,65
modname=Users/Preferences.php&tab=widgets,62
modname=Users/Profiles.php&profile_id=3,58
modname=Users/User.php&category_id=1,58
modname=Users/User.php&staff_id=1,51
modname=Users/User.php&staff_id=3,45
modname=Users/User.php&category_id=2&staff_id=4,44
modname=Users/Preferences.php&tab=staff_fields,42
modname=Users/TeacherPrograms.php&include=Grades/ProgressReports.php,41
modname=Users/Preferences.php&tab=staff_widgets,38
modname=Users/TeacherPrograms.php&include=Grades/InputFinalGrades.php&modfunc=&search_modfunc=list&next_modname=Users/TeacherPrograms.php&include=Grades/InputFinalGrades.php&advanced=&last=&first=&usrid=&username=&profile=teacher&student_grade_level=,37
modname=Users/TeacherPrograms.php&include=Grades/InputFinalGrades.php&modfunc=&search_modfunc=list&next_modname=Users/TeacherPrograms.php&include=Grades/InputFinalGrades.php&advanced=&last=&first=&usrid=&username=&profile=teacher,34
modname=Users/AddStudents.php&modfunc=save,33
modname=Users/User.php&category_id=3&staff_id=2,30
modname=Users/TeacherPrograms.php&include=Grades/Grades.php&modfunc=&search_modfunc=list&next_modname=Users/TeacherPrograms.php&include=Grades/Grades.php&advanced=&last=&first=&usrid=&username=&profile=teacher&student_grade_level=,28
modname=Users/User.php&category_id=1&staff_id=2,28
modname=Users/User.php&modfunc=delete,27
modname=Users/AddStudents.php&staff_id=3,26
modname=Users/Profiles.php&profile_id=4,24
modname=Users/TeacherPrograms.php&include=Attendance/TakeAttendance.php&modfunc=&search_modfunc=list&next_modname=Users/TeacherPrograms.php&include=Attendance/TakeAttendance.php&advanced=&last=&first=&usrid=&username=&profile=teacher&student_grade_level=,24
modname=Users/UserFields.php&category_id=1,24
modname=Users/User.php&category_id=1&staff_id=4,22
modname=Users/User.php&next_modname=Users/User.php&advanced=Y,22
modname=Users/User.php&category_id=2&staff_id=4&all_schools=Y,21
