cs_uri_query,total
modname=Students/Student.php,7411
modname=Students/Student.php&include=General_Info&student_id=new,1777
modname=Students/AdvancedReport.php,947
modname=Students/AddUsers.php,884
modname=Students/Student.php&modfunc=&search_modfunc=list&next_modname=Students/Student.php&advanced=&last=&first=&stuid=&addr=&grade=,790
modname=Students/AssignOtherInfo.php,656
modname=Students/Letters.php,556
modname=Students/StudentFields.php,527
modname=Students/Student.php&category_id=1&student_id=&modfunc=update,523
modname=Students/Student.php&student_id=1,449
modname=Students/StudentBreakdown.php,395
modname=Students/StudentLabels.php,377
modname=Students/Student.php&category_id=3&student_id=1,369
modname=Students/EnrollmentCodes.php,290
modname=Students/PrintStudentInfo.php,257
modname=Students/AddDrop.php,222
modname=Students/Student.php&category_id=1&student_id=1,174
modname=Students/Student.php&student_id=2,158
modname=Students/Student.php&next_modname=Students/Student.php&advanced=Y,153
modname=Students/StudentFields.php&category_id=new,134
