{
    "avg": {
        "wmc": 26.73,
        "ccn": 19.93,
        "bugs": 0.48,
        "kanDefect": 1.5,
        "relativeSystemComplexity": 197.41,
        "relativeDataComplexity": 2.03,
        "relativeStructuralComplexity": 195.38,
        "volume": 1448.23,
        "commentWeight": 12.03,
        "intelligentContent": 80.04,
        "lcom": 2.24,
        "instability": 0.63,
        "afferentCoupling": 2.64,
        "efferentCoupling": 4.59,
        "difficulty": 12.32,
        "mi": 54.05,
        "distance": 0.38,
        "incomingCDep": 16.5,
        "incomingPDep": 0.5,
        "outgoingCDep": 6.5,
        "outgoingPDep": 0.5,
        "classesPerPackage": 55.5
    },
    "sum": {
        "loc": 9673,
        "cloc": 166,
        "lloc": 9514,
        "nbMethods": 655,
        "nbClasses": 91,
        "nbInterfaces": 20,
        "nbPackages": 2,
        "violations": {
            "total": 75,
            "information": 13,
            "warning": 31,
            "error": 31,
            "critical": 0
        }
    }
}