{
    "avg": {
        "wmc": 6.67,
        "ccn": 4.67,
        "bugs": 0.38,
        "kanDefect": 0.39,
        "relativeSystemComplexity": 5.74,
        "relativeDataComplexity": 1.4,
        "relativeStructuralComplexity": 4.33,
        "volume": 1133.57,
        "commentWeight": 39.34,
        "intelligentContent": 58.47,
        "lcom": 3,
        "instability": 1,
        "afferentCoupling": 0,
        "efferentCoupling": 2,
        "difficulty": 10.24,
        "mi": 91.74,
        "distance": 0,
        "incomingCDep": 0,
        "incomingPDep": 0,
        "outgoingCDep": 0,
        "outgoingPDep": 0,
        "classesPerPackage": 4
    },
    "sum": {
        "loc": 250,
        "cloc": 63,
        "lloc": 187,
        "nbMethods": 9,
        "nbClasses": 3,
        "nbInterfaces": 1,
        "nbPackages": 1,
        "violations": {
            "total": 1,
            "information": 0,
            "warning": 1,
            "error": 0,
            "critical": 0
        }
    }
}