cs_uri_query,total
modname=Accounting/Incomes.php,1069
modname=Accounting/Salaries.php,711
modname=Accounting/StaffPayments.php,313
modname=Accounting/Expenses.php,259
modname=Accounting/DailyTransactions.php,179
modname=Accounting/StaffBalances.php,104
modname=Accounting/Statements.php,92
modname=Accounting/Salaries.php&modfunc=&search_modfunc=list&next_modname=Accounting/Salaries.php&advanced=&last=&first=&usrid=&username=&profile=&student_grade_level=,59
modname=Accounting/DailyTotals.php,51
modname=Accounting/Statements.php&_ROSARIO_PDF,45
modname=Accounting/Salaries.php&staff_id=2,39
modname=Accounting/Incomes.php&modfunc=remove&id=1,35
modname=Accounting/Statements.php&modfunc=&search_modfunc=list&next_modname=Accounting/Statements.php&advanced=&_ROSARIO_PDF=true,32
modname=Accounting/StaffBalances.php&modfunc=&search_modfunc=list&next_modname=Accounting/StaffBalances.php&advanced=&last=&first=&usrid=&username=&profile=&student_grade_level=,24
modname=Accounting/Salaries.php&next_modname=Accounting/Salaries.php&advanced=Y,20
modname=Accounting/StaffPayments.php&modfunc=&search_modfunc=list&next_modname=Accounting/StaffPayments.php&advanced=&last=&first=&usrid=&username=&profile=&student_grade_level=,19
modname=Accounting/Salaries.php&staff_id=1,17
modname=Accounting/Salaries.php&modfunc=&search_modfunc=list&next_modname=Accounting/Salaries.php&advanced=&last=&first=&usrid=&username=&profile=teacher&student_grade_level=,17
modname=Accounting/StaffPayments.php&staff_id=2,15
modname=Accounting/Salaries.php&staff_id=5,14
