cs_uri_query,total
modname=Grades/StudentGrades.php,1364
modname=Grades/ReportCards.php,1034
modname=Grades/GPARankList.php,1001
modname=Grades/Grades.php,961
modname=Grades/FinalGrades.php,590
modname=Grades/Configuration.php,564
modname=Grades/Assignments.php,522
modname=Grades/InputFinalGrades.php,429
modname=Grades/Transcripts.php,412
modname=Grades/StudentAssignments.php,370
modname=Grades/ReportCards.php&modfunc=save&next_modname=Grades/ReportCards.php&_ROSARIO_PDF=true,337
modname=Grades/ReportCardGrades.php,337
modname=Grades/ProgressReports.php,334
modname=Grades/Transcripts.php&modfunc=save&_ROSARIO_PDF=true,294
modname=Grades/Assignments.php&modfunc=&assignment_type_id=1,286
modname=Grades/Assignments.php&assignment_type_id=new,258
modname=Grades/Grades.php&include_inactive=&include_all=&type_id=&assignment_id=all&student_id=1,221
modname=Grades/ReportCards.php&modfunc=&search_modfunc=list&next_modname=Grades/ReportCards.php&advanced=&last=&first=&stuid=&addr=&grade=,187
modname=Grades/ReportCards.php&modfunc=save&_ROSARIO_PDF=true,184
modname=Grades/Assignments.php&modfunc=&assignment_type_id=3,180
